Covid exploration
…
Tidy data

Tidy data into the long format. pivot_longer is the
modern version of gather function in dplyr.

confirmed_long <- confirmed %>%
  select(-c(UID:code3, Country_Region, Combined_Key)) %>%
  pivot_longer(-(FIPS:`Long_`), 
               names_to = "Date", 
               values_to = "confirmed") %>%
  mutate(Date = (mdy(Date))) # convert string to date-time
confirmed_long

## # A tibble: 3,298,554 × 7
##     FIPS Admin2  Province_State   Lat Long_ Date       confirmed
##    <dbl> <chr>   <chr>          <dbl> <dbl> <date>         <dbl>
##  1  1001 Autauga Alabama         32.5 -86.6 2020-01-22         0
##  2  1001 Autauga Alabama         32.5 -86.6 2020-01-23         0
##  3  1001 Autauga Alabama         32.5 -86.6 2020-01-24         0
##  4  1001 Autauga Alabama         32.5 -86.6 2020-01-25         0
##  5  1001 Autauga Alabama         32.5 -86.6 2020-01-26         0
##  6  1001 Autauga Alabama         32.5 -86.6 2020-01-27         0
##  7  1001 Autauga Alabama         32.5 -86.6 2020-01-28         0
##  8  1001 Autauga Alabama         32.5 -86.6 2020-01-29         0
##  9  1001 Autauga Alabama         32.5 -86.6 2020-01-30         0
## 10  1001 Autauga Alabama         32.5 -86.6 2020-01-31         0
## # … with 3,298,544 more rows
## # ℹ Use `print(n = ...)` to see more rows

death_long <- deaths %>% 
  select(-c(UID:code3, Country_Region, Combined_Key)) %>%
  pivot_longer(-c(FIPS:`Long_`, Population), 
               names_to = "Date", 
               values_to = "death") %>%
  mutate(Date = mdy(Date))
death_long

## # A tibble: 3,301,896 × 8
##     FIPS Admin2  Province_State   Lat Long_ Population Date       death
##    <dbl> <chr>   <chr>          <dbl> <dbl>      <dbl> <date>     <dbl>
##  1  1001 Autauga Alabama         32.5 -86.6      55869 2020-01-22     0
##  2  1001 Autauga Alabama         32.5 -86.6      55869 2020-01-23     0
##  3  1001 Autauga Alabama         32.5 -86.6      55869 2020-01-24     0
##  4  1001 Autauga Alabama         32.5 -86.6      55869 2020-01-25     0
##  5  1001 Autauga Alabama         32.5 -86.6      55869 2020-01-26     0
##  6  1001 Autauga Alabama         32.5 -86.6      55869 2020-01-27     0
##  7  1001 Autauga Alabama         32.5 -86.6      55869 2020-01-28     0
##  8  1001 Autauga Alabama         32.5 -86.6      55869 2020-01-29     0
##  9  1001 Autauga Alabama         32.5 -86.6      55869 2020-01-30     0
## 10  1001 Autauga Alabama         32.5 -86.6      55869 2020-01-31     0
## # … with 3,301,886 more rows
## # ℹ Use `print(n = ...)` to see more rows

ncov_tbl <- confirmed_long %>%
  left_join(death_long) %>%
  rename(fips=FIPS)

## Joining, by = c("FIPS", "Admin2", "Province_State", "Lat", "Long_", "Date")

  #pivot_longer(c(confirmed,death), 
  #             names_to = "Case", 
  #             values_to = "Count")
ncov_tbl %>% print(width = Inf)

## # A tibble: 3,298,554 × 9
##     fips Admin2  Province_State   Lat Long_ Date       confirmed Population
##    <dbl> <chr>   <chr>          <dbl> <dbl> <date>         <dbl>      <dbl>
##  1  1001 Autauga Alabama         32.5 -86.6 2020-01-22         0      55869
##  2  1001 Autauga Alabama         32.5 -86.6 2020-01-23         0      55869
##  3  1001 Autauga Alabama         32.5 -86.6 2020-01-24         0      55869
##  4  1001 Autauga Alabama         32.5 -86.6 2020-01-25         0      55869
##  5  1001 Autauga Alabama         32.5 -86.6 2020-01-26         0      55869
##  6  1001 Autauga Alabama         32.5 -86.6 2020-01-27         0      55869
##  7  1001 Autauga Alabama         32.5 -86.6 2020-01-28         0      55869
##  8  1001 Autauga Alabama         32.5 -86.6 2020-01-29         0      55869
##  9  1001 Autauga Alabama         32.5 -86.6 2020-01-30         0      55869
## 10  1001 Autauga Alabama         32.5 -86.6 2020-01-31         0      55869
##    death
##    <dbl>
##  1     0
##  2     0
##  3     0
##  4     0
##  5     0
##  6     0
##  7     0
##  8     0
##  9     0
## 10     0
## # … with 3,298,544 more rows
## # ℹ Use `print(n = ...)` to see more rows
…
