BIOS/EPID 511 Homework 4
…
This subsection pulls a table of COVID-19 death rates by country from
Wikipedia.

death_url <- "https://en.wikipedia.org/wiki/COVID-19_pandemic_death_rates_by_country"

# Read page
page_death <- read_html(death_url)
death_table <- page_death %>%
  html_nodes("table.wikitable") %>%
  .[[1]] %>%  # The main table is the first wikitable
  html_table()

death_table

## # A tibble: 240 × 4
##    Country                `Deaths / million` Deaths    Cases      
##    <chr>                  <chr>              <chr>     <chr>      
##  1 World[a]               892                7,101,788 778,652,552
##  2 Peru                   6,603              221,060   4,532,724  
##  3 Bulgaria               5,679              38,767    1,339,355  
##  4 North Macedonia        5,429              9,991     352,093    
##  5 Bosnia and Herzegovina 5,119              16,406    404,289    
##  6 Hungary                5,072              49,124    2,238,461  
##  7 Croatia                4,810              18,795    1,362,394  
##  8 Slovenia               4,686              9,914     1,364,008  
##  9 Georgia                4,519              17,151    1,864,386  
## 10 Montenegro             4,317              2,654     251,280    
## # ℹ 230 more rows
…
# Clean up text fields
vaccine_table <- vaccine_table %>%
  mutate(across(where(is.character), str_trim))

# Optional: clean numeric-looking columns (remove commas, %)
vaccine_table <- vaccine_table %>%
  mutate(across(
    where(~ any(str_detect(., "[0-9]"))),
    ~ str_replace_all(., ",", "")
  ))

# View result
vaccine_table

## # A tibble: 223 × 4
##    Column_1 Location          `Vaccinated[b]` `Percent[c]`
##    <chr>    <chr>             <chr>           <chr>       
##  1 ""       World[d][e]       5645247500      70.70%      
##  2 ""       China[f]          1318026800      92.48%      
##  3 ""       India             1027438900      72.08%      
##  4 ""       European Union[g] 338481060       75.43%      
##  5 ""       United States[h]  270227170       79.12%      
##  6 ""       Indonesia         204419400       73.31%      
##  7 ""       Brazil            189643420       90.17%      
##  8 ""       Pakistan          165567890       67.94%      
##  9 ""       Bangladesh        151507170       89.45%      
## 10 ""       Japan             104740060       83.79%      
## # ℹ 213 more rows
…
# Clean and standardize death_table
death_table_clean <- death_table %>%
  select(Country, `Deaths / million`, Deaths, Cases) %>%  # keep relevant columns
  filter(!str_detect(Country, "World|Europe|Total")) %>%  # remove aggregated rows
  mutate(
    # Remove commas and convert to numeric
    `Deaths / million` = as.numeric(str_replace_all(`Deaths / million`, ",", "")),
    Deaths = as.numeric(str_replace_all(Deaths, ",", "")),
    Cases = as.numeric(str_replace_all(Cases, ",", ""))
  )

death_table_clean

## # A tibble: 237 × 4
##    Country                `Deaths / million` Deaths   Cases
##    <chr>                               <dbl>  <dbl>   <dbl>
##  1 Peru                                 6603 221060 4532724
##  2 Bulgaria                             5679  38767 1339355
##  3 North Macedonia                      5429   9991  352093
##  4 Bosnia and Herzegovina               5119  16406  404289
##  5 Hungary                              5072  49124 2238461
##  6 Croatia                              4810  18795 1362394
##  7 Slovenia                             4686   9914 1364008
##  8 Georgia                              4519  17151 1864386
##  9 Montenegro                           4317   2654  251280
## 10 Czech Republic                       4107  43836 4850686
## # ℹ 227 more rows
…
# View cleaned data
vaccine_percent_clean

## # A tibble: 220 × 3
##    Country          Vaccinated Percent
##    <chr>                 <dbl>   <dbl>
##  1 China[f]         1318026800    92.5
##  2 India            1027438900    72.1
##  3 United States[h]  270227170    79.1
##  4 Indonesia         204419400    73.3
##  5 Brazil            189643420    90.2
##  6 Pakistan          165567890    67.9
##  7 Bangladesh        151507170    89.4
##  8 Japan             104740060    83.8
##  9 Mexico             97179496    75.6
## 10 Nigeria            93829430    42.0
## # ℹ 210 more rows
…
